<?xml version="1.0" encoding="UTF-8"?>
<svg width="18px" height="22px" viewBox="0 0 18 22" version="1.1" xmlns="http://www.w3.org/2000/svg" xmlns:xlink="http://www.w3.org/1999/xlink">
    <title>bell</title>
    <g id="bell" stroke="none" stroke-width="1" fill="none" fill-rule="evenodd">
        <path d="M15,9 L15,17 L3,17 L3,16 L3,9 C3,5.6862915 5.6862915,3 9,3 C12.3137085,3 15,5.6862915 15,9 Z" id="bg" fill="#FFFFFF" fill-rule="nonzero"></path>
        <path d="M16,15 L18,16 L18,18 L0,18 L0,16 L2,15 L2,9 C2,5.8289963 4.10848853,3.15045648 6.99995367,2.28989247 L7,2 C7,0.8954305 7.8954305,1.3527075e-16 9,0 C10.1045695,-2.02906125e-16 11,0.8954305 11,2 L11.0010432,2.29018925 C13.8919961,3.15107217 16,5.82936074 16,9 L16,15 Z M9,4 C6.23857625,4 4,6.23857625 4,9 L4,16 L14,16 L14,9 C14,6.23857625 11.7614237,4 9,4 Z M7,19 L11,19 L11,19.5 C11,20.6045695 10.1045695,21.5 9,21.5 C7.8954305,21.5 7,20.6045695 7,19.5 L7,19 L7,19 Z" id="Combined-Shape" fill="#000000" fill-rule="nonzero"></path>
    </g>
</svg>