<?xml version="1.0" encoding="UTF-8"?>
<svg width="18px" height="30px" viewBox="0 0 18 30" version="1.1" xmlns="http://www.w3.org/2000/svg" xmlns:xlink="http://www.w3.org/1999/xlink">
    <title>birthday</title>
    <g id="birthday" stroke="none" stroke-width="1" fill="none" fill-rule="evenodd">
        <path d="M9,6 C10.11,6 11,5.1 11,4 C11,3.62 10.9,3.27 10.71,2.97 L9,0 L7.29,2.97 C7.1,3.27 7,3.62 7,4 C7,5.1 7.9,6 9,6 Z M15,9 L10,9 L10,7 L8,7 L8,9 L3,9 C1.34,9 0,10.34 0,12 L0,21 C0,21.55 0.45,22 1,22 L17,22 C17.55,22 18,21.55 18,21 L18,12 C18,10.34 16.66,9 15,9 Z M16,20 L2,20 L2,17 C2.9,16.99 3.76,16.63 4.4,15.99 L5.49,14.92 L6.56,15.99 C7.87,17.3 10.15,17.29 11.45,15.99 L12.53,14.92 L13.6,15.99 C14.24,16.63 15.1,16.99 16,17 L16,20 L16,20 Z M16,15.5 C15.49,15.49 15.01,15.3 14.65,14.93 L12.52,12.8 L10.38,14.93 C9.64,15.67 8.35,15.67 7.61,14.93 L5.48,12.8 L3.34,14.93 C2.99,15.29 2.51,15.49 2,15.5 L2,12 C2,11.45 2.45,11 3,11 L15,11 C15.55,11 16,11.45 16,12 L16,15.5 Z" id="Shape" fill="#000000" fill-rule="nonzero"></path>
    </g>
</svg>