<?xml version="1.0" encoding="UTF-8"?>
<svg width="18px" height="22px" viewBox="0 0 18 22" version="1.1" xmlns="http://www.w3.org/2000/svg" xmlns:xlink="http://www.w3.org/1999/xlink">
    <title>calendar-waiting</title>
    <g id="calendar-waiting" stroke="none" stroke-width="1" fill="none" fill-rule="evenodd">
        <path d="M16,19 L2,19 C1.44771525,19 1,18.5522847 1,18 L1,4 C1,3.44771525 1.44771525,3 2,3 L16,3 C16.5522847,3 17,3.44771525 17,4 L17,18 C17,18.5522847 16.5522847,19 16,19 Z" id="Path" fill="#FFFFFF" fill-rule="nonzero"></path>
        <path d="M2,20 C1.45,20 0.979,19.8043333 0.587,19.413 C0.195666667,19.021 0,18.55 0,18 L0,4 C0,3.45 0.195666667,2.97933333 0.587,2.588 C0.979,2.196 1.45,2 2,2 L3,2 L3,0 L5,0 L5,2 L13,2 L13,0 L15,0 L15,2 L16,2 C16.55,2 17.021,2.196 17.413,2.588 C17.8043333,2.97933333 18,3.45 18,4 L18,18 C18,18.55 17.8043333,19.021 17.413,19.413 C17.021,19.8043333 16.55,20 16,20 L2,20 Z M8,13 L10,13 L10,15 L8,15 L8,13 Z M5,13 L7,13 L7,15 L5,15 L5,13 Z M11,13 L13,13 L13,15 L11,15 L11,13 Z M16,18 L16,8 L2,8 L2,18 L16,18 Z M2,6 L16,6 L16,4 C16,4 16,4 16,4 C16,4 16,4 16,4 L2,4 C2,4 2,4 2,4 C2,4 2,4 2,4 L2,6 Z M2,6 L2,4 C2,4 2,4 2,4 C2,4 2,4 2,4 C2,4 2,4 2,4 C2,4 2,4 2,4 L2,6 Z" id="Shape" fill="#000000" fill-rule="nonzero"></path>
    </g>
</svg>