<?xml version="1.0" encoding="UTF-8"?>
<svg width="8px" height="8px" viewBox="0 0 8 8" version="1.1" xmlns="http://www.w3.org/2000/svg" xmlns:xlink="http://www.w3.org/1999/xlink">
    <title>check-small</title>
    <g id="check-small" stroke="none" stroke-width="1" fill="none" fill-rule="evenodd">
        <path d="M7.93681912,2.2098642 L3.96649588,7.28072825 C3.85480228,7.42376825 3.63864868,7.44087225 3.50365268,7.31726425 L0.0966158453,4.17508822 C-0.0279337559,4.06003222 -0.0327553559,3.86957622 0.0861694452,3.74908021 L0.944357453,2.87763221 C1.06328225,2.75714421 1.26015106,2.75248021 1.38470066,2.86752821 L3.53097348,4.84596822 L6.4486511,1.11920019 C6.5523079,0.987040189 6.74757031,0.960608189 6.88417271,1.06089619 L7.87655272,1.7885202 C8.01395912,1.8888082 8.04047672,2.0777122 7.93681912,2.2098642" id="Fill-1-Copy" fill="#000000"></path>
    </g>
</svg>