<?xml version="1.0" encoding="UTF-8"?>
<svg width="10px" height="12px" viewBox="0 0 10 12" version="1.1" xmlns="http://www.w3.org/2000/svg" xmlns:xlink="http://www.w3.org/1999/xlink">
    <title>chevron-left-large</title>
    <g id="chevron-left-large" stroke="none" stroke-width="1" fill="none" fill-rule="evenodd">
        <polygon id="Path" fill="#000000" fill-rule="nonzero" points="7.41 10.59 2.83 6 7.41 1.41 6 0 -1.59872116e-14 6 6 12"></polygon>
    </g>
</svg>