<?xml version="1.0" encoding="UTF-8"?>
<svg width="6px" height="10px" viewBox="0 0 6 10" version="1.1" xmlns="http://www.w3.org/2000/svg" xmlns:xlink="http://www.w3.org/1999/xlink">
    <title>chevron-left</title>
    <g id="chevron-left" stroke="none" stroke-width="1" fill="none" fill-rule="evenodd">
        <polygon id="Path" fill="#000000" fill-rule="nonzero" transform="translate(2.9988, 5) scale(-1, 1) translate(-2.9988, -5)" points="0.22 8.4425 3.655 5 0.22 1.5575 1.2775 0.5 5.7775 5 1.2775 9.5"></polygon>
    </g>
</svg>