<?xml version="1.0" encoding="UTF-8"?>
<svg width="18px" height="12px" viewBox="0 0 18 12" version="1.1" xmlns="http://www.w3.org/2000/svg" xmlns:xlink="http://www.w3.org/1999/xlink">
    <title>cloud-small</title>
    <g id="cloud-small" stroke="none" stroke-width="1" fill="none" fill-rule="evenodd">
        <path d="M4,12 C2.88888889,12 1.94444444,11.6111111 1.16666667,10.8333333 C0.388888889,10.0555556 0,9.11111111 0,8 C0,6.94444444 0.361111111,6.03125 1.08333333,5.26041667 C1.80555556,4.48958333 2.6875,4.06944444 3.72916667,4 C4.04861111,2.81944444 4.69097222,1.85763889 5.65625,1.11458333 C6.62152778,0.371527778 7.73611111,0 9,0 C10.4305556,0 11.6736111,0.482638889 12.7291667,1.44791667 C13.7847222,2.41319444 14.375,3.59722222 14.5,5 C15.4722222,5 16.2986111,5.34027778 16.9791667,6.02083333 C17.6597222,6.70138889 18,7.52777778 18,8.5 C18,9.47222222 17.6597222,10.2986111 16.9791667,10.9791667 C16.2986111,11.6597222 15.4722222,12 14.5,12 L4,12 Z M4,10.5 L14.5,10.5 C15.0555556,10.5 15.5277778,10.3055556 15.9166667,9.91666667 C16.3055556,9.52777778 16.5,9.05555556 16.5,8.5 C16.5,7.94444444 16.3055556,7.47222222 15.9166667,7.08333333 C15.5277778,6.69444444 15.0555556,6.5 14.5,6.5 L13.125,6.5 L13,5.14583333 C12.9027778,4.11805556 12.4722222,3.25347222 11.7083333,2.55208333 C10.9444444,1.85069444 10.0416667,1.5 9,1.5 C8.11111111,1.5 7.31597222,1.76736111 6.61458333,2.30208333 C5.91319444,2.83680556 5.4375,3.54166667 5.1875,4.41666667 L4.89583333,5.4375 L3.83333333,5.5 C3.16666667,5.54166667 2.61111111,5.80208333 2.16666667,6.28125 C1.72222222,6.76041667 1.5,7.33333333 1.5,8 C1.5,8.69444444 1.74305556,9.28472222 2.22916667,9.77083333 C2.71527778,10.2569444 3.30555556,10.5 4,10.5 Z" id="Shape" fill="#000000" fill-rule="nonzero"></path>
    </g>
</svg>