<?xml version="1.0" encoding="UTF-8"?>
<svg width="18px" height="14px" viewBox="0 0 18 14" version="1.1" xmlns="http://www.w3.org/2000/svg" xmlns:xlink="http://www.w3.org/1999/xlink">
    <title>column-resize</title>
    <g id="column-resize" stroke="none" stroke-width="1" fill="none" fill-rule="evenodd">
        <path d="M9,1 L1,1 L1,13 L9,13 L9,1 Z M17,1 L13,1 L13,13 L17,13 L17,1 Z" id="Combined-Shape" fill="#FFFFFF" fill-rule="nonzero"></path>
        <path d="M10,0 L10,14 L0,14 L0,0 L10,0 Z M18,0 L18,14 L12,14 L12,0 L18,0 Z M8,2 L2,2 L2,12 L8,12 L8,2 Z M16,2 L14,2 L14,12 L16,12 L16,2 Z" id="Combined-Shape" fill="#000000" fill-rule="nonzero"></path>
    </g>
</svg>