<?xml version="1.0" encoding="UTF-8"?>
<svg width="20px" height="18px" viewBox="0 0 20 18" version="1.1" xmlns="http://www.w3.org/2000/svg" xmlns:xlink="http://www.w3.org/1999/xlink">
    <title>cover-page</title>
    <g id="cover-page" stroke="none" stroke-width="1" fill="none" fill-rule="evenodd">
        <path d="M2.77777778,17 C2.28888889,17 1.87037037,16.8259259 1.52222222,16.4777778 C1.17407407,16.1296296 1,15.7111111 1,15.2222222 L1,2.77777778 C1,2.28888889 1.17407407,1.87037037 1.52222222,1.52222222 C1.87037037,1.17407407 2.28888889,1 2.77777778,1 L17,1 C17.4888889,1 17.9074074,1.17407407 18.2555556,1.52222222 C18.6037037,1.87037037 18.7777778,2.28888889 18.7777778,2.77777778 L18.7777778,15.2222222 C18.7777778,15.7111111 18.6037037,16.1296296 18.2555556,16.4777778 C17.9074074,16.8259259 17.4888889,17 17,17 L2.77777778,17 Z" id="bg" fill="#FFFFFF"></path>
        <path d="M2,18 C1.45,18 0.979166667,17.8041667 0.5875,17.4125 C0.195833333,17.0208333 0,16.55 0,16 L0,2 C0,1.45 0.195833333,0.979166667 0.5875,0.5875 C0.979166667,0.195833333 1.45,0 2,0 L18,0 C18.55,0 19.0208333,0.195833333 19.4125,0.5875 C19.8041667,0.979166667 20,1.45 20,2 L20,16 C20,16.55 19.8041667,17.0208333 19.4125,17.4125 C19.0208333,17.8041667 18.55,18 18,18 L2,18 Z M2,16 L18,16 L18,2 L2,2 L2,16 Z M4,14 L16,14 L16,12 L4,12 L4,14 Z M4,10 L8,10 L8,4 L4,4 L4,10 Z M10,10 L16,10 L16,8 L10,8 L10,10 Z M10,6 L16,6 L16,4 L10,4 L10,6 Z M2.0375,16 L2.0375,2 L2.0375,16 Z" id="Shape" fill="#000000" fill-rule="nonzero"></path>
    </g>
</svg>