<?xml version="1.0" encoding="UTF-8"?>
<svg width="16px" height="20px" viewBox="0 0 16 20" version="1.1" xmlns="http://www.w3.org/2000/svg" xmlns:xlink="http://www.w3.org/1999/xlink">
    <title>create-file</title>
    <g id="create-file" stroke="none" stroke-width="1" fill="none" fill-rule="evenodd">
        <polygon id="Rectangle" fill="#FFFFFF" fill-rule="nonzero" points="1 1 10 1 15 6 15 19 1 19"></polygon>
        <path d="M5,13 L7,13 L7,15 L9,15 L9,13 L11,13 L11,11 L9,11 L9,9 L7,9 L7,11 L5,11 L5,13 Z M10,0 L2,0 C0.9,0 0,0.9 0,2 L0,18 C0,19.1 0.89,20 1.99,20 L14,20 C15.1,20 16,19.1 16,18 L16,6 L10,0 Z M14,18 L2,18 L2,2 L9,2 L9,7 L14,7 L14,18 Z" id="Shape" fill="#000000" fill-rule="nonzero"></path>
    </g>
</svg>