<?xml version="1.0" encoding="UTF-8"?>
<svg width="10px" height="10px" viewBox="0 0 10 10" version="1.1" xmlns="http://www.w3.org/2000/svg" xmlns:xlink="http://www.w3.org/1999/xlink">
    <title>cross-small</title>
    <g id="cross-small" stroke="none" stroke-width="1" fill="none" fill-rule="evenodd">
        <path d="M5.75,0 L5.75,4.25 L10,4.25 L10,5.75 L5.75,5.75 L5.75,10 L4.25,10 L4.25,5.75 L0,5.75 L0,4.25 L4.25,4.25 L4.25,0 L5.75,0 Z" id="Combined-Shape-Copy" fill="#000000" transform="translate(5, 5) rotate(45) translate(-5, -5)"></path>
    </g>
</svg>