<?xml version="1.0" encoding="UTF-8"?>
<svg width="18px" height="18px" viewBox="0 0 18 18" version="1.1" xmlns="http://www.w3.org/2000/svg" xmlns:xlink="http://www.w3.org/1999/xlink">
    <title>earth</title>
    <g id="earth" stroke="none" stroke-width="1" fill="none" fill-rule="evenodd">
        <path d="M9,18 C7.755,18 6.585,17.76375 5.49,17.29125 C4.395,16.81875 3.4425,16.1775 2.6325,15.3675 C1.8225,14.5575 1.18125,13.605 0.70875,12.51 C0.23625,11.415 0,10.245 0,9 C0,7.755 0.23625,6.585 0.70875,5.49 C1.18125,4.395 1.8225,3.4425 2.6325,2.6325 C3.4425,1.8225 4.395,1.18125 5.49,0.70875 C6.585,0.23625 7.755,0 9,0 C10.245,0 11.415,0.23625 12.51,0.70875 C13.605,1.18125 14.5575,1.8225 15.3675,2.6325 C16.1775,3.4425 16.81875,4.395 17.29125,5.49 C17.76375,6.585 18,7.755 18,9 C18,10.245 17.76375,11.415 17.29125,12.51 C16.81875,13.605 16.1775,14.5575 15.3675,15.3675 C14.5575,16.1775 13.605,16.81875 12.51,17.29125 C11.415,17.76375 10.245,18 9,18 Z M9,16.2 C11.01,16.2 12.7125,15.5025 14.1075,14.1075 C15.5025,12.7125 16.2,11.01 16.2,9 C16.2,8.895 16.19625,8.78625 16.18875,8.67375 C16.18125,8.56125 16.1775,8.4675 16.1775,8.3925 C16.1025,8.8275 15.9,9.1875 15.57,9.4725 C15.24,9.7575 14.85,9.9 14.4,9.9 L12.6,9.9 C12.105,9.9 11.68125,9.72375 11.32875,9.37125 C10.97625,9.01875 10.8,8.595 10.8,8.1 L10.8,7.2 L7.2,7.2 L7.2,5.4 C7.2,4.905 7.37625,4.48125 7.72875,4.12875 C8.08125,3.77625 8.505,3.6 9,3.6 L9.9,3.6 C9.9,3.255 9.99375,2.95125 10.18125,2.68875 C10.36875,2.42625 10.5975,2.2125 10.8675,2.0475 C10.5675,1.9725 10.26375,1.9125 9.95625,1.8675 C9.64875,1.8225 9.33,1.8 9,1.8 C6.99,1.8 5.2875,2.4975 3.8925,3.8925 C2.4975,5.2875 1.8,6.99 1.8,9 L6.3,9 C7.29,9 8.1375,9.3525 8.8425,10.0575 C9.5475,10.7625 9.9,11.61 9.9,12.6 L9.9,13.5 L7.2,13.5 L7.2,15.975 C7.5,16.05 7.79625,16.10625 8.08875,16.14375 C8.38125,16.18125 8.685,16.2 9,16.2 Z" id="Shape" fill="#000000" fill-rule="nonzero"></path>
    </g>
</svg>