<?xml version="1.0" encoding="UTF-8"?>
<svg width="16px" height="16px" viewBox="0 0 16 16" version="1.1" xmlns="http://www.w3.org/2000/svg" xmlns:xlink="http://www.w3.org/1999/xlink">
    <title>email</title>
    <g id="email" stroke="none" stroke-width="1" fill="none" fill-rule="evenodd">
        <path d="M8,16 C6.90266667,16 5.868,15.7916667 4.896,15.375 C3.924,14.9583333 3.07333333,14.3853333 2.344,13.656 C1.61466667,12.9266667 1.04166667,12.076 0.625,11.104 C0.208333333,10.132 0,9.09733333 0,8 C0,6.88866667 0.208333333,5.85033333 0.625,4.885 C1.04166667,3.92033333 1.61466667,3.07333333 2.344,2.344 C3.07333333,1.61466667 3.924,1.04166667 4.896,0.625 C5.868,0.208333333 6.90266667,0 8,0 C9.11133333,0 10.1496667,0.208333333 11.115,0.625 C12.0796667,1.04166667 12.9266667,1.61466667 13.656,2.344 C14.3853333,3.07333333 14.9583333,3.92033333 15.375,4.885 C15.7916667,5.85033333 16,6.88866667 16,8 L16,9.25 C16,10.014 15.7326667,10.6633333 15.198,11.198 C14.6633333,11.7326667 14.014,12 13.25,12 C12.778,12 12.344,11.882 11.948,11.646 C11.552,11.41 11.2153333,11.0973333 10.938,10.708 C10.5486667,11.1106667 10.1006667,11.4266667 9.594,11.656 C9.08666667,11.8853333 8.55533333,12 8,12 C6.88866667,12 5.94433333,11.611 5.167,10.833 C4.389,10.0556667 4,9.11133333 4,8 C4,6.88866667 4.389,5.94433333 5.167,5.167 C5.94433333,4.389 6.88866667,4 8,4 C9.11133333,4 10.0556667,4.389 10.833,5.167 C11.611,5.94433333 12,6.88866667 12,8 L12,9.25 C12,9.59733333 12.1216667,9.89233333 12.365,10.135 C12.6076667,10.3783333 12.9026667,10.5 13.25,10.5 C13.5973333,10.5 13.8923333,10.3783333 14.135,10.135 C14.3783333,9.89233333 14.5,9.59733333 14.5,9.25 L14.5,8 C14.5,6.19466667 13.868,4.66 12.604,3.396 C11.34,2.132 9.80533333,1.5 8,1.5 C6.19466667,1.5 4.66,2.132 3.396,3.396 C2.132,4.66 1.5,6.19466667 1.5,8 C1.5,9.80533333 2.132,11.34 3.396,12.604 C4.66,13.868 6.19466667,14.5 8,14.5 L12,14.5 L12,16 L8,16 Z M8,10.5 C8.69466667,10.5 9.285,10.257 9.771,9.771 C10.257,9.285 10.5,8.69466667 10.5,8 C10.5,7.30533333 10.257,6.715 9.771,6.229 C9.285,5.743 8.69466667,5.5 8,5.5 C7.30533333,5.5 6.715,5.743 6.229,6.229 C5.743,6.715 5.5,7.30533333 5.5,8 C5.5,8.69466667 5.743,9.285 6.229,9.771 C6.715,10.257 7.30533333,10.5 8,10.5 Z" id="Shape" fill="#000000" fill-rule="nonzero"></path>
    </g>
</svg>