<?xml version="1.0" encoding="UTF-8"?>
<svg width="2px" height="10px" viewBox="0 0 2 10" version="1.1" xmlns="http://www.w3.org/2000/svg" xmlns:xlink="http://www.w3.org/1999/xlink">
    <title>exclamation</title>
    <g id="exclamation" stroke="none" stroke-width="1" fill="none" fill-rule="evenodd">
        <path d="M0,8 L2,8 L2,10 L0,10 L0,8 Z M0,0 L2,0 L2,6 L0,6 L0,0 Z" id="Combined-Shape" fill="#000000"></path>
    </g>
</svg>