<?xml version="1.0" encoding="UTF-8"?>
<svg width="14px" height="14px" viewBox="0 0 14 14" version="1.1" xmlns="http://www.w3.org/2000/svg" xmlns:xlink="http://www.w3.org/1999/xlink">
    <title>fetch</title>
    <g id="fetch" stroke="none" stroke-width="1" fill="none" fill-rule="evenodd">
        <path d="M14,0 L14,6 L8,6 L10.5355127,3.46444487 C9.67831483,2.60725724 8.51132397,2.05986562 7.21688962,2.00461951 L7,2 C4.23857625,2 2,4.23857625 2,7 C2,9.76142375 4.23857625,12 7,12 C9.41853874,12 11.4360122,10.2828356 11.8997409,8.0011864 L13.9289666,8.00101007 C13.4433024,11.3928118 10.5261219,14 7,14 C3.13400675,14 4.08562073e-13,10.8659932 4.08562073e-13,7 C4.08562073e-13,3.13400675 3.13400675,0 7,0 C8.93311514,0 10.6832112,0.783597766 11.9499805,2.05048554 L14,0 Z" id="Combined-Shape" fill="#000000" fill-rule="nonzero"></path>
    </g>
</svg>