<?xml version="1.0" encoding="UTF-8"?>
<svg width="24px" height="24px" viewBox="0 0 24 24" version="1.1" xmlns="http://www.w3.org/2000/svg" xmlns:xlink="http://www.w3.org/1999/xlink">
    <title>file-publish</title>
    <g id="file-publish" stroke="none" stroke-width="1" fill="none" fill-rule="evenodd">
        <polygon id="Rectangle" fill="#FFFFFF" fill-rule="nonzero" points="5 3 14 3 19 8 19 21 5 21"></polygon>
        <path d="M6,22 C5.45,22 4.97933333,21.8043333 4.588,21.413 C4.196,21.021 4,20.55 4,20 L4,4 C4,3.45 4.196,2.979 4.588,2.587 C4.97933333,2.19566667 5.45,2 6,2 L14,2 L20,8 L20,12 L18,12 L18,9 L13,9 L13,4 L6,4 L6,20 L15,20 L15,22 L6,22 Z M19,14 L23,18 L21.6,19.4 L20,17.8 L20,22 L18,22 L18,17.8 L16.4,19.4 L15,18 L19,14 Z M6,20 L6,4 L6,20 Z" id="Shape" fill="#000000" fill-rule="nonzero"></path>
    </g>
</svg>