<?xml version="1.0" encoding="UTF-8"?>
<svg width="18px" height="24px" viewBox="0 0 18 24" version="1.1" xmlns="http://www.w3.org/2000/svg" xmlns:xlink="http://www.w3.org/1999/xlink">
    <title>file-ppt</title>
    <g id="file-ppt" stroke="none" stroke-width="1" fill="none" fill-rule="evenodd">
        <path d="M18,22 C18,23.1045695 17.1045695,24 16,24 L2,24 C0.8954305,24 1.3527075e-16,23.1045695 0,22 L0,2 C-1.3527075e-16,0.8954305 0.8954305,-2.41183085e-16 2,0 L12,0 L18,6 L18,22 Z" id="Combined-Shape" fill="#E9E9E0" fill-rule="nonzero"></path>
        <g id="Group-4" transform="translate(3.000000, 2.000000)" fill="#99918D" fill-rule="nonzero">
            <path d="M5,6 L5,7 L2,7 L2,6 L5,6 Z M2,5 L2,6 L1,6 L1,5 L2,5 Z M6,5 L6,6 L5,6 L5,5 L6,5 Z M1,2 L1,5 L0,5 L0,2 L1,2 Z M6,3 L6,2 L7,2 L7,5 L6,5 L6,4 L3,4 L3,1 L2,1 L2,2 L1,2 L1,1 L2,1 L2,0 L5,0 L5,1 L4,1 L4,3 L6,3 Z M6,1 L6,2 L5,2 L5,1 L6,1 Z" id="Combined-Shape"></path>
            <rect id="Rectangle-Copy-7" x="0" y="8" width="12" height="1"></rect>
            <rect id="Rectangle-Copy-14" x="0" y="10" width="12" height="1"></rect>
        </g>
        <path d="M0,15 L18,15 L18,22 C18,23.1045695 17.1045695,24 16,24 L2,24 C0.8954305,24 1.3527075e-16,23.1045695 0,22 L0,15 L0,15 Z" id="Combined-Shape-Copy" fill="#F56262" fill-rule="nonzero"></path>
        <path d="M3.99975586,22 L3.99975586,20.0004883 L5.99926758,20.0004883 L5.99926758,19.0007324 L3.99975586,19.0007324 L3.99975586,18.0009766 L5.99926758,18.0009766 L5.99926758,17 L3,17 L3,22 L3.99975586,22 Z M6.99902344,19.0007324 L6.99902344,18.0009766 L5.99926758,18.0009766 L5.99926758,19.0007324 L6.99902344,19.0007324 Z M8.99975586,22 L8.99975586,20.0004883 L10.9992676,20.0004883 L10.9992676,19.0007324 L8.99975586,19.0007324 L8.99975586,18.0009766 L10.9992676,18.0009766 L10.9992676,17 L8,17 L8,22 L8.99975586,22 Z M11.9990234,19.0007324 L11.9990234,18.0009766 L10.9992676,18.0009766 L10.9992676,19.0007324 L11.9990234,19.0007324 Z M14.9995117,22 L14.9995117,18.0009766 L15.9992676,18.0009766 L15.9992676,17 L13,17 L13,18.0009766 L13.9997559,18.0009766 L13.9997559,22 L14.9995117,22 Z" id="ppt" fill="#FFFFFF" fill-rule="nonzero"></path>
        <polygon id="Rectangle-Copy-2" fill="#D9D7CA" fill-rule="nonzero" points="12 0 18 6 12 6"></polygon>
    </g>
</svg>