<?xml version="1.0" encoding="UTF-8"?>
<svg width="20px" height="16px" viewBox="0 0 20 16" version="1.1" xmlns="http://www.w3.org/2000/svg" xmlns:xlink="http://www.w3.org/1999/xlink">
    <title>file-folder-filled</title>
    <g id="file-folder-filled" stroke="none" stroke-width="1" fill="none" fill-rule="evenodd">
        <g id="Group" fill-rule="nonzero">
            <path d="M0,5 L0,1 C-6.76353751e-17,0.44771525 0.44771525,-9.5692398e-18 1,0 L9,0 C9.55228475,-1.01453063e-16 10,0.44771525 10,1 L19,1 C19.5522847,1 20,1.44771525 20,2 L20,5 L0,5 Z" id="Combined-Shape" fill="#E1B155"></path>
            <rect id="Combined-Shape" fill="#FFFFFF" x="2" y="3" width="16" height="3"></rect>
            <path d="M0,4 L20,4 L20,14 C20,15.1045695 19.1045695,16 18,16 L2,16 C0.8954305,16 -3.0881846e-16,15.1045695 0,14 L0,4 L0,4 Z" id="Rectangle" fill="#F8D24A"></path>
        </g>
    </g>
</svg>