<?xml version="1.0" encoding="UTF-8"?>
<svg width="18px" height="24px" viewBox="0 0 18 24" version="1.1" xmlns="http://www.w3.org/2000/svg" xmlns:xlink="http://www.w3.org/1999/xlink">
    <title>file-doc</title>
    <g id="sketches" stroke="none" stroke-width="1" fill="none" fill-rule="evenodd">
        <g id="file-types" transform="translate(-122.000000, -49.000000)">
            <g id="file-doc" transform="translate(122.000000, 49.000000)">
                <path d="M18,22 C18,23.1045695 17.1045695,24 16,24 L2,24 C0.8954305,24 1.3527075e-16,23.1045695 0,22 L0,2 C-1.3527075e-16,0.8954305 0.8954305,-2.41183085e-16 2,0 L12,0 L18,6 L18,22 Z" id="Combined-Shape" fill="#E9E9E0" fill-rule="nonzero"></path>
                <g id="Group-2" transform="translate(3.000000, 6.000000)" fill="#99918D" fill-rule="nonzero">
                    <rect id="Rectangle-Copy-4" x="0" y="4" width="12" height="1"></rect>
                    <rect id="Rectangle-Copy-7" x="0" y="2" width="12" height="1"></rect>
                    <rect id="Rectangle-Copy-5" x="0" y="0" width="7" height="1"></rect>
                    <rect id="Rectangle-Copy-6" x="0" y="6" width="12" height="1"></rect>
                </g>
                <path d="M0,15 L18,15 L18,22 C18,23.1045695 17.1045695,24 16,24 L2,24 C0.8954305,24 1.3527075e-16,23.1045695 0,22 L0,15 L0,15 Z" id="Combined-Shape-Copy" fill="#28A8C6" fill-rule="nonzero"></path>
                <text id="DOC" font-family="CG-pixel-4x5, CG pixel 4x5" font-size="5" font-weight="normal" fill="#FFFFFF">
                    <tspan x="2" y="22">DOC</tspan>
                </text>
                <polygon id="Rectangle-Copy-2" fill="#D9D7CA" fill-rule="nonzero" points="12 0 18 6 12 6"></polygon>
            </g>
        </g>
    </g>
</svg>