<?xml version="1.0" encoding="UTF-8"?>
<svg width="14px" height="14px" viewBox="0 0 14 14" version="1.1" xmlns="http://www.w3.org/2000/svg" xmlns:xlink="http://www.w3.org/1999/xlink">
    <title>go-up-arrow</title>
    <g id="go-up-arrow" stroke="none" stroke-width="1" fill="none" fill-rule="evenodd">
        <polygon id="Path" fill="#000000" fill-rule="nonzero" transform="translate(6.5, 6.75) scale(1, -1) rotate(90) translate(-6.5, -6.75)" points="7.75 13.25 6.6875 12.1875 9.375 9.5 0.75 9.5 0.75 0.25 2.25 0.25 2.25 8 9.375 8 6.6875 5.3125 7.75 4.25 12.25 8.75"></polygon>
    </g>
</svg>