<?xml version="1.0" encoding="UTF-8"?>
<svg width="20px" height="20px" viewBox="0 0 20 20" version="1.1" xmlns="http://www.w3.org/2000/svg" xmlns:xlink="http://www.w3.org/1999/xlink">
    <title>heart</title>
    <g id="heart" stroke="none" stroke-width="1" fill="none" fill-rule="evenodd">
        <path d="M4.28455083,3.38368157 L3.97572287,3.51638126 C2.57742967,4.04906439 1.71221334,5.56381813 1.64241463,7.44364389 C1.54655149,11.2752316 4.3911747,15.1691934 9.30677502,17.743707 L9.99736818,18.0981688 L10.682913,17.7488496 C15.4825869,15.2351359 18.3132089,11.4725823 18.3600153,7.75130776 L18.3586423,7.49866102 C18.2881887,5.5835216 17.43495,4.12201943 15.9859946,3.50103856 C14.0121743,2.65511556 12.217731,2.97750673 10.9060215,4.34847087 L10.7670766,4.50000862 L10.6231219,4.67558472 C10.5304333,4.78762475 10.4442267,4.88974737 10.364021,4.98257657 L10.1409248,5.23380786 L9.999,5.382 L9.81693393,5.18812707 L9.56189213,4.89642084 L9.27242022,4.54635122 C7.9482934,3.03190176 6.2132311,2.59795619 4.28455083,3.38368157 Z" id="bg" fill="#FFFFFF" fill-rule="nonzero"></path>
        <path d="M9.99982073,3.85791217 C11.1907715,2.49682562 13.4025371,1.30587489 16.3799139,2.58189353 C18.16634,3.34750471 19.2722228,5.1339308 19.3572907,7.43076435 C19.4423586,10.8334807 17.230593,15.5972836 10.7654319,18.8298642 C10.5102282,18.9149321 10.2550245,19 9.99982073,19 C9.744617,19 9.48941327,18.9149321 9.23420954,18.8298642 C2.76904845,15.5972836 0.557282808,10.8334807 0.642350717,7.43076435 C0.727418626,5.1339308 1.83330145,3.2624368 3.61972754,2.58189353 C6.59710436,1.22080698 8.80887,2.49682562 9.99982073,3.85791217 Z M8.49466734,5.17492138 C7.52577776,4.06761901 6.26170833,3.65800645 4.66183403,4.30977951 L4.33171819,4.450869 C3.3778149,4.81426073 2.69926746,5.93103673 2.64172601,7.48074873 C2.56147518,10.6907817 4.93927215,14.3274037 9.7707361,16.8578515 L9.999,16.975 L10.2289054,16.8578518 C14.9425291,14.3891353 17.3207334,10.8680653 17.3600944,7.7387307 L17.3586611,7.50478767 C17.3011102,5.95091468 16.6338848,4.86667336 15.5920753,4.42018359 C13.917182,3.70237215 12.5918896,4.03295493 11.6285706,5.03979051 L11.5049741,5.17492138 C10.7389358,6.12276862 10.237218,6.59669224 9.99982073,6.59669224 C9.76242342,6.59669224 9.26070563,6.12276862 8.49466734,5.17492138 Z" id="Shape" fill="#000000" fill-rule="nonzero"></path>
    </g>
</svg>