<?xml version="1.0" encoding="UTF-8"?>
<svg width="22px" height="18px" viewBox="0 0 22 18" version="1.1" xmlns="http://www.w3.org/2000/svg" xmlns:xlink="http://www.w3.org/1999/xlink">
    <title>image-size-large</title>
    <g id="image-size-large" stroke="none" stroke-width="1" fill="none" fill-rule="evenodd">
        <rect id="Rectangle" fill="#FFFFFF" fill-rule="nonzero" x="1" y="1" width="20" height="16"></rect>
        <path d="M20,0 L2,0 C1,0 0,1 0,2 L0,16 C0,17.1 0.9,18 2,18 L20,18 C21,18 22,17 22,16 L22,2 C22,1 21,0 20,0 Z M20,15.92 C19.98,15.95 19.94,15.98 19.92,16 L2,16 L2,2.08 L2.08,2 L19.91,2 C19.94,2.02 19.97,2.06 19.99,2.08 L19.99,15.92 L20,15.92 Z M10,12.51 L7.5,9.5 L4,14 L18,14 L13.5,8 L10,12.51 Z" id="Shape" fill="#000000" fill-rule="nonzero"></path>
    </g>
</svg>