<?xml version="1.0" encoding="UTF-8"?>
<svg width="18px" height="18px" viewBox="0 0 18 18" version="1.1" xmlns="http://www.w3.org/2000/svg" xmlns:xlink="http://www.w3.org/1999/xlink">
    <title>prize</title>
    <g id="prize" stroke="none" stroke-width="1" fill="none" fill-rule="evenodd">
        <path d="M16,2 L14,2 L14,0 L4,0 L4,2 L2,2 C0.9,2 0,2.9 0,4 L0,5 C0,7.55 1.92,9.63 4.39,9.94 C5.02,11.44 6.37,12.57 8,12.9 L8,16 L4,16 L4,18 L14,18 L14,16 L10,16 L10,12.9 C11.63,12.57 12.98,11.44 13.61,9.94 C16.08,9.63 18,7.55 18,5 L18,4 C18,2.9 17.1,2 16,2 Z M2,5 L2,4 L4,4 L4,7.82 C2.84,7.4 2,6.3 2,5 Z M9,11 C7.35,11 6,9.65 6,8 L6,2 L12,2 L12,8 C12,9.65 10.65,11 9,11 Z M16,5 C16,6.3 15.16,7.4 14,7.82 L14,4 L16,4 L16,5 Z" id="Shape" fill="#000000" fill-rule="nonzero"></path>
    </g>
</svg>