<?xml version="1.0" encoding="UTF-8"?>
<svg width="18px" height="18px" viewBox="0 0 18 18" version="1.1" xmlns="http://www.w3.org/2000/svg" xmlns:xlink="http://www.w3.org/1999/xlink">
    <title>search</title>
    <g id="search" stroke="none" stroke-width="1" fill="none" fill-rule="evenodd">
        <path d="M13.8293682,12.0615049 L17.0407377,15.2729708 C17.5288931,15.7611261 17.5288931,16.5525824 17.0407377,17.0407377 C16.5525824,17.5288931 15.7611261,17.5288931 15.2729708,17.0407377 L12.0615049,13.8293682 C12.7339741,13.3301553 13.3301553,12.7339741 13.8293682,12.0615049 Z M7,0 C10.8659932,0 14,3.13400675 14,7 C14,10.8659932 10.8659932,14 7,14 C3.13400675,14 -2.13162821e-14,10.8659932 -2.13162821e-14,7 C-2.13162821e-14,3.13400675 3.13400675,0 7,0 Z M7,2.25 C4.37664744,2.25 2.25,4.37664744 2.25,7 C2.25,9.62335256 4.37664744,11.75 7,11.75 C9.62335256,11.75 11.75,9.62335256 11.75,7 C11.75,4.37664744 9.62335256,2.25 7,2.25 Z" id="Combined-Shape" fill="#000000" fill-rule="nonzero"></path>
    </g>
</svg>