<?xml version="1.0" encoding="UTF-8"?>
<svg width="20px" height="20px" viewBox="0 0 20 20" version="1.1" xmlns="http://www.w3.org/2000/svg" xmlns:xlink="http://www.w3.org/1999/xlink">
    <title>selected</title>
    <g id="selected" stroke="none" stroke-width="1" fill="none" fill-rule="evenodd">
        <path d="M3.99954513,5.49254513 L3.99954513,7.51254513 L2.35279415,7.74452516 L3.74452516,17.6472058 L8.34654513,16.9995451 L15.5035748,17.0006215 C15.2451477,17.6427042 14.6601612,18.1327684 13.9255521,18.236011 L4.02287136,19.627742 C2.92905146,19.7814683 1.91771539,19.019372 1.76398902,17.9255521 L0.372258014,8.02287136 C0.218531652,6.92905146 0.980628044,5.91771539 2.07444795,5.76398902 L3.99954513,5.49254513 Z M17,2 C18.1045695,2 19,2.8954305 19,4 L19,14 C19,15.1045695 18.1045695,16 17,16 L7,16 C5.8954305,16 5,15.1045695 5,14 L5,4 C5,2.8954305 5.8954305,2 7,2 L17,2 Z M17,4 L7,4 L7,14 L17,14 L17,4 Z M14.8841727,6.06089619 L15.8765527,6.7885202 C16.0139591,6.8888082 16.0404767,7.0777122 15.9368191,7.2098642 L11.9664959,12.2807282 C11.8548023,12.4237682 11.6386487,12.4408722 11.5036527,12.3172642 L8.09661585,9.17508822 C7.97206624,9.06003222 7.96724464,8.86957622 8.08616945,8.74908021 L8.94435745,7.87763221 C9.06328225,7.75714421 9.26015106,7.75248021 9.38470066,7.86752821 L11.5309735,9.84596822 L14.4486511,6.11920019 C14.5523079,5.98704019 14.7475703,5.96060819 14.8841727,6.06089619 Z" id="Combined-Shape" fill="#000000" fill-rule="nonzero"></path>
    </g>
</svg>