<?xml version="1.0" encoding="UTF-8"?>
<svg width="14px" height="12px" viewBox="0 0 14 12" version="1.1" xmlns="http://www.w3.org/2000/svg" xmlns:xlink="http://www.w3.org/1999/xlink">
    <title>skip-previous</title>
    <g id="skip-previous" stroke="none" stroke-width="1" fill="none" fill-rule="evenodd">
        <path d="M0,12 L0,0 L2,0 L2,12 L0,12 Z M13,12 L4,6 L13,0 L13,12 Z M11,8.25 L11,3.75 L7.6,6 L11,8.25 Z" id="Shape" fill="#000000" fill-rule="nonzero"></path>
    </g>
</svg>