<?xml version="1.0" encoding="UTF-8"?>
<svg width="20px" height="20px" viewBox="0 0 20 20" version="1.1" xmlns="http://www.w3.org/2000/svg" xmlns:xlink="http://www.w3.org/1999/xlink">
    <title>subgroup</title>
    <g id="subgroup" stroke="none" stroke-width="1" fill="none" fill-rule="evenodd">
        <path d="M10,0 C15.52,0 20,4.48 20,10 C20,15.52 15.52,20 10,20 C4.48,20 0,15.52 0,10 C0,4.48 4.48,0 10,0 Z M6.5,13.5 C5.34637036,13.5 4.34482716,14.1511594 3.84286349,15.1059852 C5.20147655,16.7446896 7.20230018,17.8313965 9.45933856,17.9820185 C9.47769136,17.8816394 9.48891701,17.7796584 9.49490731,17.6762728 L9.5,17.5 L9.5,16.5 C9.5,14.8431458 8.15685425,13.5 6.5,13.5 Z M10,2 C5.581722,2 2,5.581722 2,10 C2,11.1609172 2.2472796,12.2640792 2.69204066,13.2596877 C3.60938814,12.1827598 4.97496052,11.5 6.5,11.5 C7.80804283,11.5 8.99877084,12.0022844 9.88983002,12.8244992 L10.0008822,12.9301486 L10.0008822,12.9301486 C10.9010697,12.0455148 12.1368289,11.5 13.5,11.5 C15.0250395,11.5 16.3906119,12.1827598 17.3077205,13.2592829 C17.7527204,12.2640792 18,11.1609172 18,10 C18,5.581722 14.418278,2 10,2 Z M6.5,5 C8.15,5 9.5,6.35 9.5,8 C9.5,9.65 8.15,11 6.5,11 C4.85,11 3.5,9.65 3.5,8 C3.5,6.35 4.85,5 6.5,5 Z M13.5,5.5 C14.875,5.5 16,6.625 16,8 C16,9.375 14.875,10.5 13.5,10.5 C12.125,10.5 11,9.375 11,8 C11,6.625 12.125,5.5 13.5,5.5 Z M6.5,7 C5.95,7 5.5,7.45 5.5,8 C5.5,8.55 5.95,9 6.5,9 C7.05,9 7.5,8.55 7.5,8 C7.5,7.45 7.05,7 6.5,7 Z" id="Shape-Copy" fill="#000000" fill-rule="nonzero"></path>
    </g>
</svg>