<?xml version="1.0" encoding="UTF-8"?>
<svg width="18px" height="18px" viewBox="0 0 18 18" version="1.1" xmlns="http://www.w3.org/2000/svg" xmlns:xlink="http://www.w3.org/1999/xlink">
    <title>table</title>
    <g id="table" stroke="none" stroke-width="1" fill="none" fill-rule="evenodd">
        <path d="M16,1 L2,1 C1.7154492,1 1.49838827,1.09017322 1.29470832,1.29350473 C1.11939252,1.46911919 1.02809769,1.65368031 1.00559133,1.88202043 L1,2 L1,16 C1,16.2845508 1.09017322,16.5016117 1.29350473,16.7052917 C1.46911919,16.8806075 1.65368031,16.9719023 1.88202043,16.9944087 L2,17 L16,17 C16.2845508,17 16.5016117,16.9098268 16.7052917,16.7064953 C16.8806075,16.5308808 16.9719023,16.3463197 16.9944087,16.1179796 L17,16 L17,2 C17,1.7154492 16.9098268,1.49838827 16.7064953,1.29470832 C16.5308808,1.11939252 16.3463197,1.02809769 16.1179796,1.00559133 L16,1 Z" id="Path" fill="#FFFFFF" fill-rule="nonzero"></path>
        <path d="M16,18 L2,18 C1.45,18 0.979,17.8043333 0.587,17.413 C0.195666667,17.021 0,16.55 0,16 L0,2 C0,1.45 0.195666667,0.979 0.587,0.587 C0.979,0.195666667 1.45,0 2,0 L16,0 C16.55,0 17.021,0.195666667 17.413,0.587 C17.8043333,0.979 18,1.45 18,2 L18,16 C18,16.55 17.8043333,17.021 17.413,17.413 C17.021,17.8043333 16.55,18 16,18 Z M2,5 L16,5 L16,2 C16,2 16,2 16,2 C16,2 16,2 16,2 L2,2 C2,2 2,2 2,2 C2,2 2,2 2,2 L2,5 Z M5,7 L2,7 L2,16 C2,16 2,16 2,16 C2,16 2,16 2,16 L5,16 L5,7 Z M13,7 L13,16 L16,16 C16,16 16,16 16,16 C16,16 16,16 16,16 L16,7 L13,7 Z M11,7 L7,7 L7,16 L11,16 L11,7 Z" id="Shape" fill="#000000" fill-rule="nonzero"></path>
    </g>
</svg>