<?xml version="1.0" encoding="UTF-8"?>
<svg width="16px" height="14px" viewBox="0 0 16 14" version="1.1" xmlns="http://www.w3.org/2000/svg" xmlns:xlink="http://www.w3.org/1999/xlink">
    <title>thumbs-small-fill</title>
    <g id="thumbs-small-fill" stroke="none" stroke-width="1" fill="none" fill-rule="evenodd">
        <g id="Group" transform="translate(1.000000, 0.000000)" fill-rule="nonzero">
            <path d="M8.64968359,0.714424221 L8.57794702,0.717739385 C8.51458154,0.725536309 8.46246765,0.745396884 8.41131492,0.783892268 L8.36010144,0.828842632 L3.86554622,5.28594322 L1.42857143,5.28594322 C1.22548639,5.28594322 1.07087865,5.35021712 0.925076272,5.4960195 C0.799640141,5.62145563 0.734370845,5.75315966 0.718282396,5.91606231 L0.714285714,6.00022894 L0.714285714,12.4288004 C0.714285714,12.6317942 0.778734119,12.7866677 0.925076272,12.9330098 C1.05004974,13.0579833 1.18149245,13.1230583 1.34438732,13.1391006 L1.42857143,13.1430861 L11.4285714,13.1430861 C11.5577154,13.1430861 11.682641,13.103337 11.8180713,13.0130502 C11.9318154,12.9372207 12.0111946,12.8578738 12.0609298,12.7792821 L12.0927467,12.7205467 L14.2171429,7.72642857 L14.2795806,7.4857558 L14.2857143,7.42880037 L14.2857143,6.00022894 C14.2857143,5.81193993 14.2202597,5.65921265 14.0663523,5.50530521 C13.9344316,5.37338455 13.803378,5.30644968 13.6500537,5.2900177 L13.5714286,5.28594322 L8.05307734,5.28594322 L9.07708962,1.12201944 C9.09215176,1.0647833 9.08759184,1.02260402 9.05755201,0.962524363 C9.01845181,0.884323967 8.95990483,0.82577699 8.86375255,0.775170525 C8.78944605,0.73606184 8.72051626,0.716703298 8.64968359,0.714424221 Z" id="Path-2" fill="#FFFFFF"></path>
            <path d="M9.19642857,0.143086081 C9.42261905,0.2621337 9.58928571,0.428800366 9.69642857,0.643086081 C9.80357143,0.857371795 9.82738095,1.07760989 9.76785714,1.30380037 L8.96428571,4.57165751 L13.5714286,4.57165751 C13.952381,4.57165751 14.2857143,4.71451465 14.5714286,5.00022894 C14.8571429,5.28594322 15,5.61927656 15,6.00022894 L15,7.42880037 C15,7.5121337 14.9880952,7.60141941 14.9642857,7.69665751 C14.9404762,7.7918956 14.9166667,7.88118132 14.8928571,7.96451465 L12.75,13.0002289 C12.6428571,13.2383242 12.4642857,13.4407051 12.2142857,13.6073718 C11.9642857,13.7740385 11.702381,13.8573718 11.4285714,13.8573718 L1.42857143,13.8573718 C1.03571429,13.8573718 0.69952381,13.7176099 0.42,13.4380861 C0.14,13.1580861 0,12.8216575 0,12.4288004 L0,6.00022894 C0,5.60737179 0.14,5.27094322 0.42,4.99094322 C0.69952381,4.71141941 1.03571429,4.57165751 1.42857143,4.57165751 L3.57142857,4.57165751 L3.57142857,4.57165751 L7.85714286,0.321657509 C8.03571429,0.143086081 8.24690476,0.0388003663 8.49071429,0.0088003663 C8.735,-0.0207234432 8.9702381,0.0240384615 9.19642857,0.143086081 Z M3.57142857,6 L1.42857143,6 L1.42857143,12.4285714 L3.57142857,12.4285714 L3.57142857,6 Z" id="Shape" fill="#000000"></path>
        </g>
    </g>
</svg>