<?xml version="1.0" encoding="UTF-8"?>
<svg width="20px" height="16px" viewBox="0 0 20 16" version="1.1" xmlns="http://www.w3.org/2000/svg" xmlns:xlink="http://www.w3.org/1999/xlink">
    <title>ul</title>
    <g id="ul" stroke="none" stroke-width="1" fill="none" fill-rule="evenodd">
        <path d="M1.5,6.5 C0.67,6.5 0,7.17 0,8 C0,8.83 0.67,9.5 1.5,9.5 C2.33,9.5 3,8.83 3,8 C3,7.17 2.33,6.5 1.5,6.5 Z M1.5,0.5 C0.67,0.5 0,1.17 0,2 C0,2.83 0.67,3.5 1.5,3.5 C2.33,3.5 3,2.83 3,2 C3,1.17 2.33,0.5 1.5,0.5 Z M1.5,12.5 C0.67,12.5 0,13.18 0,14 C0,14.82 0.68,15.5 1.5,15.5 C2.32,15.5 3,14.82 3,14 C3,13.18 2.33,12.5 1.5,12.5 Z M5,1 L5,3 L19,3 L19,1 L5,1 Z M5,15 L19,15 L19,13 L5,13 L5,15 Z M5,9 L19,9 L19,7 L5,7 L5,9 Z" id="Shape" fill="#000000" fill-rule="nonzero"></path>
    </g>
</svg>