<?xml version="1.0" encoding="UTF-8"?>
<svg width="32px" height="18px" viewBox="0 0 32 18" version="1.1" xmlns="http://www.w3.org/2000/svg" xmlns:xlink="http://www.w3.org/1999/xlink">
    <title>widget-carousel</title>
    <g id="widget-carousel" stroke="none" stroke-width="1" fill="none" fill-rule="evenodd">
        <path d="M28.4361148,0.5 C29.4692322,0.5 29.8368382,0.625242379 30.2126451,0.826226105 C30.6269941,1.04782237 30.9521776,1.37300588 31.1737739,1.78735487 C31.3747576,2.16316176 31.5,2.53076785 31.5,3.5638852 L31.5,14.4361148 C31.5,15.4692322 31.3747576,15.8368382 31.1737739,16.2126451 C30.9521776,16.6269941 30.6269941,16.9521776 30.2126451,17.1737739 C29.8368382,17.3747576 29.4692322,17.5 28.4361148,17.5 L3.5638852,17.5 C2.53076785,17.5 2.16316176,17.3747576 1.78735487,17.1737739 C1.37300588,16.9521776 1.04782237,16.6269941 0.826226105,16.2126451 C0.625242379,15.8368382 0.5,15.4692322 0.5,14.4361148 L0.5,3.5638852 C0.5,2.53076785 0.625242379,2.16316176 0.826226105,1.78735487 C1.04782237,1.37300588 1.37300588,1.04782237 1.78735487,0.826226105 C2.16316176,0.625242379 2.53076785,0.5 3.5638852,0.5 Z" id="Rectangle-5-Copy" stroke="#0771F2" fill="#E1EBF8"></path>
        <path d="M4,4 L18,4 L18,6 L4,6 Z M5,8 L10,8 C10.5522847,8 11,8.44771525 11,9 C11,9.55228475 10.5522847,10 10,10 L5,10 C4.44771525,10 4,9.55228475 4,9 C4,8.44771525 4.44771525,8 5,8 Z M13,15 C13.5522847,15 14,14.5522847 14,14 C14,13.4477153 13.5522847,13 13,13 C12.4477153,13 12,13.4477153 12,14 C12,14.5522847 12.4477153,15 13,15 Z M16,15 C16.5522847,15 17,14.5522847 17,14 C17,13.4477153 16.5522847,13 16,13 C15.4477153,13 15,13.4477153 15,14 C15,14.5522847 15.4477153,15 16,15 Z M19,15 C19.5522847,15 20,14.5522847 20,14 C20,13.4477153 19.5522847,13 19,13 C18.4477153,13 18,13.4477153 18,14 C18,14.5522847 18.4477153,15 19,15 Z" id="Combined-Shape" fill="#0771F2"></path>
    </g>
</svg>