<?xml version="1.0" encoding="UTF-8"?>
<svg width="24px" height="22px" viewBox="0 0 24 22" version="1.1" xmlns="http://www.w3.org/2000/svg" xmlns:xlink="http://www.w3.org/1999/xlink">
    <title>widget-podcast</title>
    <g id="widget-podcast" stroke="none" stroke-width="1" fill="none" fill-rule="evenodd">
        <path d="M20.4361148,0.5 C21.4692322,0.5 21.8368382,0.625242379 22.2126451,0.826226105 C22.6269941,1.04782237 22.9521776,1.37300588 23.1737739,1.78735487 C23.3747576,2.16316176 23.5,2.53076785 23.5,3.5638852 L23.5,18.4361148 C23.5,19.4692322 23.3747576,19.8368382 23.1737739,20.2126451 C22.9521776,20.6269941 22.6269941,20.9521776 22.2126451,21.1737739 C21.8368382,21.3747576 21.4692322,21.5 20.4361148,21.5 L3.5638852,21.5 C2.53076785,21.5 2.16316176,21.3747576 1.78735487,21.1737739 C1.37300588,20.9521776 1.04782237,20.6269941 0.826226105,20.2126451 C0.625242379,19.8368382 0.5,19.4692322 0.5,18.4361148 L0.5,3.5638852 C0.5,2.53076785 0.625242379,2.16316176 0.826226105,1.78735487 C1.04782237,1.37300588 1.37300588,1.04782237 1.78735487,0.826226105 C2.16316176,0.625242379 2.53076785,0.5 3.5638852,0.5 Z" id="Rectangle-5" stroke="#0771F2" fill="#FFFFFF"></path>
        <path d="M4.5,6 C5.32842712,6 6,5.32842712 6,4.5 C6,3.67157288 5.32842712,3 4.5,3 C3.67157288,3 3,3.67157288 3,4.5 C3,5.32842712 3.67157288,6 4.5,6 Z M7,3 L16,3 L16,4 L7,4 Z M7,5 L14,5 L14,6 L7,6 Z" id="Combined-Shape" fill="#0771F2"></path>
        <g id="Group" transform="translate(8, 8)">
            <rect id="Rectangle" fill="#0771F2" x="0" y="0" width="8" height="8" rx="4"></rect>
            <g id="play" transform="translate(2.8, 2)" fill="#FFFFFF" fill-rule="nonzero">
                <polygon id="Rectangle" points="-8.8817842e-16 0 3.2 2 -8.8817842e-16 4"></polygon>
            </g>
        </g>
        <rect id="Combined-Shape" fill="#0771F2" x="3" y="17" width="18" height="2" rx="1"></rect>
    </g>
</svg>