<?xml version="1.0" encoding="UTF-8"?>
<svg width="32px" height="18px" viewBox="0 0 32 18" version="1.1" xmlns="http://www.w3.org/2000/svg" xmlns:xlink="http://www.w3.org/1999/xlink">
    <title>widget-leader</title>
    <defs>
        <rect id="path-1" x="0" y="0" width="32" height="6"></rect>
    </defs>
    <g id="widget-leader" stroke="none" stroke-width="1" fill="none" fill-rule="evenodd">
        <path d="M28.2932577,0.5 C29.326375,0.5 29.6939811,0.625242379 30.069788,0.826226105 C30.484137,1.04782237 30.8093205,1.37300588 31.0309168,1.78735487 C31.2319005,2.16316176 31.3571429,2.53076785 31.3571429,3.5638852 L31.3571429,14.4361148 C31.3571429,15.4692322 31.2319005,15.8368382 31.0309168,16.2126451 C30.8093205,16.6269941 30.484137,16.9521776 30.069788,17.1737739 C29.6939811,17.3747576 29.326375,17.5 28.2932577,17.5 L3.70674234,17.5 C2.67362499,17.5 2.3060189,17.3747576 1.93021201,17.1737739 C1.51586302,16.9521776 1.19067951,16.6269941 0.969083248,16.2126451 C0.768099522,15.8368382 0.642857143,15.4692322 0.642857143,14.4361148 L0.642857143,3.5638852 C0.642857143,2.53076785 0.768099522,2.16316176 0.969083248,1.78735487 C1.19067951,1.37300588 1.51586302,1.04782237 1.93021201,0.826226105 C2.3060189,0.625242379 2.67362499,0.5 3.70674234,0.5 Z" id="Rectangle-5-Copy" stroke="#0771F2" fill="#E1EBF8"></path>
        <g id="mountains" transform="translate(0.000000, 11.000000)">
            <mask id="mask-2" fill="white">
                <use xlink:href="#path-1"></use>
            </mask>
            <g id="Rectangle"></g>
            <g id="Group" mask="url(#mask-2)">
                <g transform="translate(15.000000, -0.000000)">
                    <path d="M8.4456055,0.335401892 L2.49601561,6.77585735 L15.001223,6.57226906 L9.96937885,0.369976982 C9.58080021,-0.108988221 8.8555089,-0.1254454 8.4456055,0.335401892 Z" id="Rectangle-6-Copy" fill="#0771F2" fill-rule="nonzero"></path>
                    <polygon id="Rectangle-6-Copy" fill="#9CC6FA" fill-rule="evenodd" points="9.19280435 1.00000242 14.2246485 7.2022945 6.57653081 7.04155547 5.24321447 5.44045788"></polygon>
                    <path d="M3.40861295,2.53332957 L0,6.84102187 L8.24783746,6.68246789 L4.97812957,2.53476513 C4.57821959,2.02746779 3.80945026,2.02676463 3.40861295,2.53332957 Z M4.19280435,3.15384858 L7.10752169,6.85125163 L1.24801026,6.87538195 L4.19280435,3.15384858 Z" id="Rectangle-6" fill="#0771F2" fill-rule="nonzero"></path>
                    <polygon id="Rectangle-6" fill="#9CC6FA" fill-rule="evenodd" points="4.19280435 3.15384858 7.13523911 6.88641197 1.24269036 6.88210506"></polygon>
                </g>
            </g>
        </g>
    </g>
</svg>